{
  "project_info": {
    "project_number": "1081669209521",
    "firebase_url": "https://medicalarm-2b942.firebaseio.com",
    "project_id": "medicalarm-2b942",
    "storage_bucket": "medicalarm-2b942.appspot.com"
  },
  "client": [
    {
      "client_info": {
        "mobilesdk_app_id": "1:1081669209521:android:4b7e307d8345648b2c0190",
        "android_client_info": {
          "package_name": "unisep.edu.br.medicalarm"
        }
      },
      "oauth_client": [
        {
          "client_id": "1081669209521-rpi8cg40q234q1fqpfo4seslbjfajr52.apps.googleusercontent.com",
          "client_type": 3
        }
      ],
      "api_key": [
        {
          "current_key": "AIzaSyCXzI1KksKFNVBLkB6CbqFG4NxrDXt_mW4"
        }
      ],
      "services": {
        "appinvite_service": {
          "other_platform_oauth_client": [
            {
              "client_id": "1081669209521-rpi8cg40q234q1fqpfo4seslbjfajr52.apps.googleusercontent.com",
              "client_type": 3
            }
          ]
        }
      }
    }
  ],
  "configuration_version": "1"
}